{
  "ticker": "TSLA",
  "company_name": "Tesla, Inc.",
  "sector": "Consumer Cyclical",
  "industry": "Auto Manufacturers",
  "num_dividends": 0,
  "num_positive_splits": 1,
  "finviz_url": "https://finviz.com/quote.ashx?t=TSLA",
  "all_url_infos": [
    {
      "url": "https://www.investors.com/market-trend/stock-market-today/dow-jones-futures-why-market-rally-is-so-strong-tesla-stock-holds-buy-point/?src=A00220",
      "article_title": "Dow Jones Futures: Why The Market Rally Is So Strong; Tesla Holds Buy Point Despite Bad News",
      "article_text_file": "/home/sameer/stocks/samstocks/sentiquity/output/stock_news_article_TSLA_0.txt",
      "date": "Sep-06-21",
      "time": "07:51PM",
      "sentiment": 0
    },
    {
      "url": "https://finance.yahoo.com/news/10-trending-stocks-reddit-204745665.html",
      "article_title": "10 Trending Stocks on Reddit",
      "article_text_file": "/home/sameer/stocks/samstocks/sentiquity/output/stock_news_article_TSLA_1.txt",
      "date": "Sep-06-21",
      "time": "04:47PM",
      "sentiment": 0
    },
    {
      "url": "https://finance.yahoo.com/news/1-volkswagen-ceo-better-software-171415652.html",
      "article_title": "UPDATE 1-Volkswagen CEO: 'We need a better software culture'",
      "article_text_file": "/home/sameer/stocks/samstocks/sentiquity/output/stock_news_article_TSLA_2.txt",
      "date": "Sep-06-21",
      "time": "01:14PM",
      "sentiment": 0
    },
    {
      "url": "https://finance.yahoo.com/news/auto-stock-roundup-buyout-updates-122112114.html",
      "article_title": "Auto Stock Roundup: Buyout Updates From THO, CNHI & SMP, and More",
      "article_text_file": "/home/sameer/stocks/samstocks/sentiquity/output/stock_news_article_TSLA_3.txt",
      "date": "Sep-06-21",
      "time": "08:21AM",
      "sentiment": 0
    },
    {
      "url": "https://finance.yahoo.com/news/tesla-tsla-delays-cybertruck-production-112611403.html",
      "article_title": "Tesla (TSLA) Delays Its Cybertruck Production to Late 2022",
      "article_text_file": "/home/sameer/stocks/samstocks/sentiquity/output/stock_news_article_TSLA_4.txt",
      "date": "Sep-06-21",
      "time": "07:26AM",
      "sentiment": 0
    }
  ]
}